%YAML 1.1
%TAG !u! tag:unity3d.com,2011:
--- !u!114 &11400000
MonoBehaviour:
  m_ObjectHideFlags: 0
  m_CorrespondingSourceObject: {fileID: 0}
  m_PrefabInstance: {fileID: 0}
  m_PrefabAsset: {fileID: 0}
  m_GameObject: {fileID: 0}
  m_Enabled: 1
  m_EditorHideFlags: 0
  m_Script: {fileID: 11500000, guid: 05f9e24ce86cba745a9f7a6e4035309f, type: 3}
  m_Name: char3
  m_EditorClassIdentifier: 
  spwaned: 0
  m_petDetail:
    name: Garena
    c_name: "\u50B3\u8AAA\u5C0D\u6C7A"
    Lock: 1
    Variety: Keera
    c_variety: "\u7DBA\u863F"
    Detail: 'Description


      When Qiluo was born, she became an orphan because
      of war, and was picked up and raised by the black magician Lorient. As a half-elf,
      Qiluo is a rare black magic experiment body, so her body has been eroded by
      black magic for a long time. '
    c_Detail: "\u7C21\u4ECB\r\n\n\u7DBA\u863F\u525B\u51FA\u751F\u6642\u5C31\u56E0\u6230\u4E82\u6210\u70BA\u4E86\u5B64\u5152\uFF0C\u88AB\u9ED1\u9B54\u6CD5\u5E2B\u6D1B\u91CC\u6602\u64BF\u5230\u4E26\u6276\u990A\u9577\u5927\u3002\u8EAB\u70BA\r\u534A\u7CBE\u9748\u7684\u7DBA\u863F\u662F\u96E3\u5F97\u4E00\u898B\u7684\u9ED1\u9B54\u6CD5\u5BE6\u9A57\u9AD4\uFF0C\u5979\u7684\u8EAB\u9AD4\u56E0\u6B64\u9577\u671F\u53D7\u5230\u9ED1\u9B54\u6CD5\u7684\u4FB5\r\u8755\u3002\u5728\u9019\u7A2E\u6975\u7AEF\u74B0\u5883\u4E0B\u9577\u5927\u7684\u7DBA\u863F\uFF0C\u500B\u6027\u5341\u5206\u626D\u66F2\uFF0C\u4F46\u4E5F\u6975\u5EA6\u6E34\u671B\u611B\u8207\u89AA\u60C5\u3002"
    m_type: 1
    MenuPhoto: {fileID: 21300000, guid: 35c40b8aa1219b248975c220fd177211, type: 3}
    SettingPhoto: {fileID: 21300000, guid: ccd9f0222bfcf4a498d843fccbe57f00, type: 3}
    FourFootPrefab: {fileID: 1076308083563887110, guid: 2c2cc841cdc83434697df9db5c3bce96,
      type: 3}
    Diff_Texture:
    - {fileID: 2800000, guid: a79fdba7546a69e4cb432933ecc092c9, type: 3}
    Diff_Color:
    - {fileID: 0}
