%YAML 1.1
%TAG !u! tag:unity3d.com,2011:
--- !u!114 &11400000
MonoBehaviour:
  m_ObjectHideFlags: 0
  m_CorrespondingSourceObject: {fileID: 0}
  m_PrefabInstance: {fileID: 0}
  m_PrefabAsset: {fileID: 0}
  m_GameObject: {fileID: 0}
  m_Enabled: 1
  m_EditorHideFlags: 0
  m_Script: {fileID: 11500000, guid: 05f9e24ce86cba745a9f7a6e4035309f, type: 3}
  m_Name: dgo1
  m_EditorClassIdentifier: 
  spwaned: 0
  m_petDetail:
    name: Pet
    c_name: "\u5BF5\u7269"
    Lock: 0
    Variety: Chai WaWa
    c_variety: "\u67F4\u5A03\u5A03"
    Detail: 'Profile

      Gender: Female (2-years-old)

      Appearance : Doe
      eyes, short-haired, big ears, petite

      Personality: Vivacious and playful,
      the doggo that never sleeps'
    c_Detail: "\u7C21\u4ECB\r\n\u6027\u5225\uFF1A\u5973 (2\u6B72)\r\n\u7279\u5FB5\uFF1A
      \u5927\u773C\u775B\u3001\u77ED\u6BDB\u3001 \u5927\u8033\u6735\u3001\u5C0F\u5DE7\u8EAB\u578B\r\n\u6027\u683C\uFF1A\u6D3B\u6F51\u8CAA\u73A9\uFF0C\u7CBE\u529B\u591A\u591A\uFF0C\u6210\u65E5\u5468\u8EAB\u90C1\u7121\u6642\u505C\uFF0C\u6700\u611B\u51FA\u8857\u300C\u653E\u96FB\u300D\r"
    m_type: 2
    MenuPhoto: {fileID: 21300000, guid: b0e191033aa52604ab59c39f6d3c8bd6, type: 3}
    SettingPhoto: {fileID: 21300000, guid: b0e191033aa52604ab59c39f6d3c8bd6, type: 3}
    FourFootPrefab: {fileID: 5519797958254350291, guid: 35cedbc235cf9df44b63dd8693734408,
      type: 3}
    Diff_Texture:
    - {fileID: 2800000, guid: 742fbc3bbe7ad344e82e34ebac2dda86, type: 3}
    - {fileID: 2800000, guid: 51985705e3b19744390320fa99bb48c1, type: 3}
    - {fileID: 2800000, guid: 45378967a6b487440b1828dd58be99c8, type: 3}
    - {fileID: 2800000, guid: 3e5b19d2f5553494cbb1dab7743aaed7, type: 3}
    Diff_Color:
    - {fileID: 21300000, guid: 4953c215a7fa18f4591f9de4793ac46c, type: 3}
    - {fileID: 21300000, guid: a40e0caaf61a5af4ca76adf93016138c, type: 3}
    - {fileID: 21300000, guid: 6fdc92f8d7fcdde4a8790db705bfe778, type: 3}
    - {fileID: 21300000, guid: 2709efaf09ed124408d558fb7d15d966, type: 3}
    m_petColorName: 0500000001000000030000000a000000
