%YAML 1.1
%TAG !u! tag:unity3d.com,2011:
--- !u!114 &11400000
MonoBehaviour:
  m_ObjectHideFlags: 0
  m_CorrespondingSourceObject: {fileID: 0}
  m_PrefabInstance: {fileID: 0}
  m_PrefabAsset: {fileID: 0}
  m_GameObject: {fileID: 0}
  m_Enabled: 1
  m_EditorHideFlags: 0
  m_Script: {fileID: 11500000, guid: 05f9e24ce86cba745a9f7a6e4035309f, type: 3}
  m_Name: Char12
  m_EditorClassIdentifier: 
  spwaned: 0
  m_petDetail:
    name: Garena
    c_name: "\u50B3\u8AAA\u5C0D\u6C7A"
    Lock: 1
    Variety: "Erland\u2019orr"
    c_variety: "\u862D\u9438"
    Detail: 'Eisenow has passed many legends about elves. Their beauty, mystery,
      and magic are still the source of inspiration for the minstrels. This has nothing
      to do with the elven queen Teranas who saved the world hundreds of years ago:
      it was her power to shoot Angel, the Lord of Darkness, that the Allied Forces
      could work together to defeat the powerful abyss army.'
    c_Detail: "\u827E\u68EE\u8AFE\u6D41\u50B3\u904E\u8A31\u591A\u95DC\u65BC\u7CBE\u9748\u7684\u50B3\u8AAA\u3002\u4ED6\u5011\u7684\u7F8E\u8C8C\u3001\u795E\u79D8\u3001\u548C\u9B54\u6CD5\uFF0C\u8FC4\u4ECA\u4ECD\u662F\u541F\u6E38\u8A69\u4EBA\u5011\u5275\u4F5C\u6642\u7684\u9748\u611F\u6CC9\u6E90\u3002\u9019\u548C\u6578\u767E\u5E74\u524D\uFF0C\u90A3\u4F4D\u62EF\u6551\u4E16\u754C\u7684\u7CBE\u9748\u5973\u738B\u7279\u723E\u5B89\u5A1C\u7D72\u4E0D\u7121\u95DC\u4FC2\uFF1A\u6B63\u662F\u4F9D\u9760\u5979\u5C04\u6BBA\u9ED1\u6697\u4E4B\u4E3B\u5B89\u683C\u5217\u7684\u5A01\u52E2\uFF0C\u806F\u76DF\u8ECD\u624D\u80FD\u4E00\u9F13\u4F5C\u6C23\uFF0C\u64CA\u6F70\u8ECD\u5BB9\u9F0E\u76DB\u7684\u6DF1\u6DF5\u5927\u8ECD\u3002"
    m_type: 1
    MenuPhoto: {fileID: 21300000, guid: a535c1f73c08b6c42b7822181df4270f, type: 3}
    SettingPhoto: {fileID: 21300000, guid: a535c1f73c08b6c42b7822181df4270f, type: 3}
    FourFootPrefab: {fileID: 4677132071901301886, guid: 549f7308c6b6b4e489c93265688eb846,
      type: 3}
    Diff_Texture:
    - {fileID: 2800000, guid: 3211107566fc214448af3bb56b72620c, type: 3}
    Diff_Color:
    - {fileID: 0}
