%YAML 1.1
%TAG !u! tag:unity3d.com,2011:
--- !u!114 &11400000
MonoBehaviour:
  m_ObjectHideFlags: 0
  m_CorrespondingSourceObject: {fileID: 0}
  m_PrefabInstance: {fileID: 0}
  m_PrefabAsset: {fileID: 0}
  m_GameObject: {fileID: 0}
  m_Enabled: 1
  m_EditorHideFlags: 0
  m_Script: {fileID: 11500000, guid: 05f9e24ce86cba745a9f7a6e4035309f, type: 3}
  m_Name: Char4
  m_EditorClassIdentifier: 
  spwaned: 0
  m_petDetail:
    name: Garena
    c_name: "\u50B3\u8AAA\u5C0D\u6C7A"
    Lock: 1
    Variety: Darcy
    c_variety: "\u9054\u723E\u897F"
    Detail: 'One of the greatest miracles in the history of mankind, the Great Wall
      of Magic, has withstood the invasion of countless abyss warcraft for hundreds
      of years. Its creator and guardian is the legendary magician, D''arcy. '
    c_Detail: "\u4EBA\u985E\u53F2\u4E0A\u6700\u5049\u5927\u7684\u5947\u8DE1\u4E4B\u4E00\u9B54\u6CD5\u9577\u57CE\uFF0C\u6578\u767E\u5E74\u4F86\u62B5\u64CB\u7121\u6578\u6B21\u6DF1\u6DF5\u9B54\u7378\u7684\u4FB5\u8972\uFF0C\u800C\u5B83\u7684\u5275\u9020\u8005\u8207\u5B88\u8B77\u8005\uFF0C\u6B63\u662F\u50B3\u5947\u9B54\u6CD5\u5E2B\u9054\u723E\u897F\u3002\u96A8\u8457\u9B54\u6CD5\u9577\u57CE\u5EFA\u7ACB\uFF0C\u6DF1\u6DF5\u9B54\u7378\u7684\u4FB5\u8972\u983B\u7387\u9A5F\u7136\u52A0\u5287\uFF0C\u9054\u723E\u897F\u5C07\u7528\u4ED6\u5F37\u5927\u7684\u6B21\u5143\u9B54\u6CD5\u548C\u7375\u9B54\u8005\u8ECD\u5718\u4E00\u8D77\u5B88\u8B77\u9577\u57CE\u8207\u4EBA\u985E\u7684\u5B89\u5BE7\u3002"
    m_type: 1
    MenuPhoto: {fileID: 21300000, guid: fe6196fdfc9d744fdb6e755af4519563, type: 3}
    SettingPhoto: {fileID: 21300000, guid: fe6196fdfc9d744fdb6e755af4519563, type: 3}
    FourFootPrefab: {fileID: 7233022625523788888, guid: 894f9a2af6a46234f8c5cd92c6b3c846,
      type: 3}
    Diff_Texture:
    - {fileID: 2800000, guid: 8cff72f9005110a4ab4183e8e5567f39, type: 3}
    Diff_Color:
    - {fileID: 0}
