{
  "project_info": {
    "project_number": "112799059749",
    "firebase_url": "https://smartar-38d00-default-rtdb.firebaseio.com",
    "project_id": "smartar-38d00",
    "storage_bucket": "smartar-38d00.appspot.com"
  },
  "client": [
    {
      "client_info": {
        "mobilesdk_app_id": "1:112799059749:android:c844039c74b555553514cc",
        "android_client_info": {
          "package_name": "com.Softmind.SmartAR"
        }
      },
      "oauth_client": [
        {
          "client_id": "112799059749-cdqlvqrngmqdh7qf1u7eit4upd7d3qe4.apps.googleusercontent.com",
          "client_type": 3
        }
      ],
      "api_key": [
        {
          "current_key": "AIzaSyDc0StVjgv_aMvdEvwBAajjA4svcG5xxyo"
        }
      ],
      "services": {
        "appinvite_service": {
          "other_platform_oauth_client": [
            {
              "client_id": "112799059749-cdqlvqrngmqdh7qf1u7eit4upd7d3qe4.apps.googleusercontent.com",
              "client_type": 3
            },
            {
              "client_id": "112799059749-s0qf4uqm4f2d4vghetguj2b19iamet4r.apps.googleusercontent.com",
              "client_type": 2,
              "ios_info": {
                "bundle_id": "com.smartone.SmarToneAR"
              }
            }
          ]
        }
      }
    }
  ],
  "configuration_version": "1"
}